{
  "extensionDescription": {
    "message": "Improved functions to get and send messages"
  },
  "extensionName": {
    "message": "Get/Send Button"
  },
  "buttonGetOnly": {
    "message": "Атрымаць лісты"
  },
  "buttonGetAndSend": {
    "message": "Атрымаць/Адправіць"
  },
  "buttonGetsend_tooltip": {
    "message": "Функцыя наладжваецца"
  },
  "buttonSendall": {
    "message": "Адправіць усё"
  },
  "buttonSendall_tooltip": {
    "message": "Адпраўляе ўсе неадпраўленыя паведамленні з тэчкі Выходныя"
  },
  "menuGetall": {
    "message": "Атрымаць пошту для ўсіх акаўнтаў"
  },
  "menuGetall_tooltip": {
    "message": "…і спытае якія адсутнічаюць паролі!"
  },
  "menuGetauth": {
    "message": "Атрымаць пошту для ўсіх авторизованых акаўнтаў"
  },
  "menuGetauth_tooltip": {
    "message": "…не спытае якія адсутнічаюць паролі!"
  },
  "menuGetthis": {
    "message": "Атрымаць пошту для выбраного акаўнта"
  },
  "menuGetthis_tooltip": {
    "message": "Атрымаць новую пошту для вылучанага акаўнта"
  },
  "menuSendall": {
    "message": "Адправіць усё неадпраўленыя"
  },
  "menuSendall_tooltip": {
    "message": "Адпраўляе ўсе неадпраўленыя паведамленні з тэчкі Выходныя"
  },
  "menuSyncAll_tooltip": {
    "message": "Сінхранізаваць навіны/IMAP-пошту"
  },
  "optionGetSendButtonAskPasswords": {
    "message": "Ask for missing passwords (valid for Shift+Click too)"
  },
  "optionButtonSendOrGetAndSend": {
    "message": "Кнопка 'Атрымаць/Адправіць'"
  },
  "optionRadioGetSendButtonGetAllAccounts": {
    "message": "All accounts"
  },
  "optionRadioGetSendButtonGetOnlySingleAccount": {
    "message": "Focussed account only"
  },
  "optionRadioGetSendButtonSendNo": {
    "message": "Толькі атрымаць пошту"
  },
  "optionRadioGetSendButtonSendYes": {
    "message": "Атрымаць + адправіць пошту"
  },

  "optionButtonFunctionHeader": {
    "message": "Функцыі кнопак"
  },
  "optionGetAllOrSingle": {
    "message": "Get new messages from:"
  },
  "optionButtonFunctionDescription": {
    "message": "Наладзіць кнопку 'Атрымаць/Адправіць'"
  },
  "optionPageTitle": {
    "message": "Налады Get/Send-Button"
  },

  "optionDebugHeader": {
    "message": "Debug mode"
  },
  "optionDebugDescription": {
    "message": "Debug information will be logged in the error console."
  },
  "optionDebug": {
    "message": "Activate debug mode"
  },

  "optionResetAllOptionsHeader": {
    "message": "Reset all options"
  },
  "optionResetAllOptionsDescription": {
    "message": "Click to reset all options to their default values."
  },
  "optionButtonReset": {
    "message": "Reset"
  }
}